    0    0    0    0 0.4999999601 0.0000000000
    0    1    0    1 0.5000000399 0.0000000000
    0    0    0    1 -0.3092813962 0.0000002756
    0    1    0    0 -0.3092813962 -0.0000002756
    1    0    1    0 0.5000000567 0.0000000000
    1    1    1    1 0.4999999433 0.0000000000
    1    0    1    1 0.2953224478 -0.0000000432
    1    1    1    0 0.2953224478 0.0000000432
    2    0    2    0 0.4999999866 0.0000000000
    2    1    2    1 0.5000000134 0.0000000000
    2    0    2    1 -0.1719249206 0.0000002292
    2    1    2    0 -0.1719249206 -0.0000002292
    3    0    3    0 0.5000000169 0.0000000000
    3    1    3    1 0.4999999831 0.0000000000
    3    0    3    1 0.1645888502 -0.0000001165
    3    1    3    0 0.1645888502 0.0000001165
    4    0    4    0 0.5000000586 0.0000000000
    4    1    4    1 0.4999999414 0.0000000000
    4    0    4    1 -0.2666913516 0.0000004750
    4    1    4    0 -0.2666913516 -0.0000004750
    5    0    5    0 0.5000000058 0.0000000000
    5    1    5    1 0.4999999942 0.0000000000
    5    0    5    1 0.1645888477 -0.0000000778
    5    1    5    0 0.1645888477 0.0000000778
    6    0    6    0 0.4999999011 0.0000000000
    6    1    6    1 0.5000000989 0.0000000000
    6    0    6    1 -0.1719249465 0.0000001656
    6    1    6    0 -0.1719249465 -0.0000001656
    7    0    7    0 0.5000000753 0.0000000000
    7    1    7    1 0.4999999247 0.0000000000
    7    0    7    1 0.2953224693 -0.0000000512
    7    1    7    0 0.2953224693 0.0000000512
